0a4df941201aad06613bc15ec82a143c_identity_inverted_flipnrot_100
0a6b447f70335c369dac89fe83957d8a_identity_flipnrot_110
0a05fc131feac918c80759c0076657a4_identity_inverted_flipnrot_110
0a14cb22fe5844aadc7fead5360e8b79_identity_inverted_flipnrot_110
0a7aa29eb5ab2b0b5c9aa2f5b2386f44_resize_640_invert
0a19e6e04a5bf385b71af9ffd36a2cad_identity_flipnrot_110
0a45ac0b9f86bf9bca47b6c09fa8d641_resize_125_inverted_identity
0a46bfbfaf615ae3e3de35018cfa12fb_identity_flipnrot_010
0a64b1f59628cfd5bbf0cdaa58759f88_identity_inverted_flipnrot_010
0a46bfbfaf615ae3e3de35018cfa12fb_identity_flipnrot_110
0a45ac0b9f86bf9bca47b6c09fa8d641_resize_150_inverted_identity